ALU/transcript
# Reading pref.tcl
dir
#  Volume in drive D is Files
#  Volume Serial Number is 7A4C-EFF2
# 
#  Directory of D:\OneDrive\School\UW\TCES330\FinalProject\UWT-TCES-330_FinalProject\ALU
# 
# 05/05/2026  11:16 AM    <DIR>          .
# 05/05/2026  11:16 AM    <DIR>          ..
# 05/14/2026  10:26 PM             9,976 ALU.sv
# 04/30/2026  12:54 PM            20,560 ALULabdesc.docx
# 04/29/2026  10:04 PM            38,222 ALULabdesc.pdf
# 04/29/2026  12:04 PM               782 ALU_wave.do
# 05/05/2026  11:16 AM           402,314 Amico & Teal Phase 1 Report.pdf
# 04/29/2026  09:54 PM               673 assembly code ALU.asm
# 04/24/2026  03:36 PM                54 Launch_ModelSim.bat
# 05/04/2026  02:14 PM               422 runlab.do
# 05/14/2026  10:38 PM                20 transcript
# 04/30/2026  01:09 PM            57,344 vsim.wlf
# 04/30/2026  01:07 PM    <DIR>          work
#               10 File(s)        530,367 bytes
#                3 Dir(s)  19,572,727,808 bytes free
do runlab.do
# ** Warning: (vlib-34) Library already exists at "work".
# Model Technology ModelSim - Intel FPGA Edition vlog 2020.1 Compiler 2020.02 Feb 28 2020
# Start time: 22:39:16 on May 14,2026
# vlog -reportprogress 300 ./ALU.sv 
# -- Compiling module ALU
# -- Compiling module ALU_tb
# 
# Top level modules:
# 	ALU_tb
# End time: 22:39:16 on May 14,2026, Elapsed time: 0:00:00
# Errors: 0, Warnings: 0
# vsim -voptargs=""+acc"" -t 1ps -lib work ALU_tb 
# Start time: 22:39:16 on May 14,2026
# Loading sv_std.std
# Loading work.ALU_tb
# Loading work.ALU
# .main_pane.wave.interior.cs.body.pw.wf
# .main_pane.structure.interior.cs.body.struct
# .main_pane.objects.interior.cs.body.tree
# 
# Starting directed ALU tests...
# 
# PASS:  op=0, ALUA=0005, ALUB=0000, ALUout=0005
# PASS:  op=1, ALUA=0001, ALUB=0001, ALUout=0002
# PASS:  op=2, ALUA=0004, ALUB=0002, ALUout=0002
# PASS:  op=3, ALUA=0200, ALUB=0100, ALUout=0200
# PASS:  op=4, ALUA=0000, ALUB=0001, ALUout=0001
# PASS:  op=5, ALUA=0000, ALUB=0001, ALUout=0001
# PASS:  op=6, ALUA=0001, ALUB=0001, ALUout=0001
# PASS:  op=7, ALUA=0100, ALUB=0000, ALUout=0101
# 
# Starting edge-case ALU tests...
# 
# PASS:  op=1, ALUA=ffff, ALUB=0001, ALUout=0000
# PASS:  op=2, ALUA=0000, ALUB=0001, ALUout=ffff
# PASS:  op=7, ALUA=ffff, ALUB=0000, ALUout=0000
# PASS:  op=4, ALUA=aaaa, ALUB=5555, ALUout=ffff
# PASS:  op=5, ALUA=aaaa, ALUB=5555, ALUout=ffff
# PASS:  op=6, ALUA=aaaa, ALUB=5555, ALUout=0000
# 
# Starting randomized ALU tests...
# 
# PASS:  op=6, ALUA=a3b8, ALUB=0c26, ALUout=0020
# PASS:  op=6, ALUA=e3b6, ALUB=08c6, ALUout=0086
# PASS:  op=7, ALUA=0f72, ALUB=f32e, ALUout=0f73
# PASS:  op=4, ALUA=553a, ALUB=1c6a, ALUout=4950
# PASS:  op=5, ALUA=fa6f, ALUB=1a56, ALUout=fa7f
# PASS:  op=5, ALUA=77d4, ALUB=40ae, ALUout=77fe
# PASS:  op=3, ALUA=b7db, ALUB=0e05, ALUout=b7db
# PASS:  op=5, ALUA=8320, ALUB=65e5, ALUout=e7e5
# PASS:  op=5, ALUA=8d25, ALUB=1ee9, ALUout=9fed
# PASS:  op=3, ALUA=9d8a, ALUB=2158, ALUout=9d8a
# PASS:  op=1, ALUA=d156, ALUB=93c9, ALUout=651f
# PASS:  op=6, ALUA=b140, ALUB=d780, ALUout=9100
# PASS:  op=0, ALUA=c8d4, ALUB=e98e, ALUout=c8d4
# PASS:  op=7, ALUA=1997, ALUB=9125, ALUout=1998
# PASS:  op=2, ALUA=7258, ALUB=f951, ALUout=7907
# PASS:  op=3, ALUA=de23, ALUB=d354, ALUout=de23
# PASS:  op=6, ALUA=565a, ALUB=1ae6, ALUout=1242
# PASS:  op=7, ALUA=3265, ALUB=15ea, ALUout=3266
# PASS:  op=1, ALUA=10ef, ALUB=a444, ALUout=b533
# PASS:  op=7, ALUA=10cb, ALUB=c347, ALUout=10cc
# PASS:  op=5, ALUA=d5f2, ALUB=9be1, ALUout=dff3
# PASS:  op=5, ALUA=d330, ALUB=2276, ALUout=f376
# PASS:  op=3, ALUA=45d2, ALUB=e716, ALUout=45d2
# PASS:  op=1, ALUA=1340, ALUB=cab5, ALUout=ddf5
# PASS:  op=7, ALUA=9f73, ALUB=10a0, ALUout=9f74
# PASS:  op=5, ALUA=1c1d, ALUB=a3d4, ALUout=bfdd
# PASS:  op=7, ALUA=a19a, ALUB=d084, ALUout=a19b
# PASS:  op=5, ALUA=bc89, ALUB=990a, ALUout=bd8b
# PASS:  op=6, ALUA=0cfe, ALUB=3e4c, ALUout=0c4c
# PASS:  op=4, ALUA=1ac3, ALUB=ef88, ALUout=f54b
# PASS:  op=7, ALUA=459b, ALUB=baf3, ALUout=459c
# PASS:  op=7, ALUA=45b7, ALUB=d10b, ALUout=45b8
# PASS:  op=2, ALUA=ad00, ALUB=4909, ALUout=63f7
# PASS:  op=0, ALUA=3ac1, ALUB=1e04, ALUout=3ac1
# PASS:  op=5, ALUA=43af, ALUB=c56f, ALUout=c7ef
# PASS:  op=0, ALUA=e7cd, ALUB=776c, ALUout=e7cd
# PASS:  op=5, ALUA=40a9, ALUB=cdfc, ALUout=cdfd
# PASS:  op=6, ALUA=70a7, ALUB=403b, ALUout=4023
# PASS:  op=6, ALUA=7aa1, ALUB=2585, ALUout=2081
# PASS:  op=0, ALUA=dfa0, ALUB=6115, ALUout=dfa0
# PASS:  op=0, ALUA=b9c4, ALUB=b78b, ALUout=b9c4
# PASS:  op=5, ALUA=66bd, ALUB=6a6c, ALUout=6efd
# PASS:  op=1, ALUA=16ab, ALUB=d1aa, ALUout=e855
# PASS:  op=6, ALUA=1ab2, ALUB=5156, ALUout=1012
# PASS:  op=4, ALUA=38d4, ALUB=22e1, ALUout=1a35
# PASS:  op=1, ALUA=f421, ALUB=f960, ALUout=ed81
# PASS:  op=6, ALUA=b606, ALUB=77f4, ALUout=3604
# PASS:  op=3, ALUA=94ca, ALUB=7228, ALUout=94ca
# PASS:  op=6, ALUA=6daf, ALUB=d3ec, ALUout=41ac
# PASS:  op=5, ALUA=6446, ALUB=5948, ALUout=7d4e
# PASS:  op=5, ALUA=97fe, ALUB=e6a4, ALUout=f7fe
# PASS:  op=5, ALUA=f00d, ALUB=9676, ALUout=f67f
# PASS:  op=1, ALUA=ad1f, ALUB=adf9, ALUout=5b18
# PASS:  op=5, ALUA=ca21, ALUB=286d, ALUout=ea6d
# PASS:  op=5, ALUA=22cf, ALUB=43f1, ALUout=63ff
# PASS:  op=0, ALUA=a59a, ALUB=5f70, ALUout=a59a
# PASS:  op=4, ALUA=9776, ALUB=23ee, ALUout=b498
# PASS:  op=4, ALUA=5118, ALUB=9a51, ALUout=cb49
# PASS:  op=7, ALUA=734d, ALUB=24c1, ALUout=734e
# PASS:  op=7, ALUA=0a46, ALUB=a6f0, ALUout=0a47
# PASS:  op=6, ALUA=6173, ALUB=273c, ALUout=2130
# PASS:  op=6, ALUA=dec8, ALUB=8742, ALUout=8640
# PASS:  op=7, ALUA=5a39, ALUB=ab73, ALUout=5a3a
# PASS:  op=0, ALUA=01b4, ALUB=2167, ALUout=01b4
# PASS:  op=2, ALUA=cfeb, ALUB=3452, ALUout=9b99
# PASS:  op=7, ALUA=954e, ALUB=d82c, ALUout=954f
# PASS:  op=5, ALUA=1ac7, ALUB=4c91, ALUout=5ed7
# PASS:  op=5, ALUA=88ea, ALUB=366f, ALUout=beef
# PASS:  op=0, ALUA=c524, ALUB=a716, ALUout=c524
# PASS:  op=1, ALUA=ad54, ALUB=9354, ALUout=40a8
# PASS:  op=3, ALUA=3b5c, ALUB=a8c3, ALUout=3b5c
# PASS:  op=6, ALUA=748c, ALUB=841e, ALUout=040c
# PASS:  op=1, ALUA=02f5, ALUB=01de, ALUout=04d3
# PASS:  op=0, ALUA=adc0, ALUB=1b80, ALUout=adc0
# PASS:  op=5, ALUA=c1ed, ALUB=e0aa, ALUout=e1ef
# PASS:  op=6, ALUA=d159, ALUB=e374, ALUout=c150
# PASS:  op=0, ALUA=391e, ALUB=0562, ALUout=391e
# PASS:  op=3, ALUA=9a4f, ALUB=33af, ALUout=9a4f
# PASS:  op=5, ALUA=39b5, ALUB=b635, ALUout=bfb5
# PASS:  op=3, ALUA=5848, ALUB=152c, ALUout=5848
# PASS:  op=6, ALUA=e990, ALUB=e916, ALUout=e910
# PASS:  op=0, ALUA=03a4, ALUB=57fe, ALUout=03a4
# PASS:  op=3, ALUA=3186, ALUB=99e0, ALUout=3186
# PASS:  op=0, ALUA=8411, ALUB=dece, ALUout=8411
# PASS:  op=6, ALUA=e599, ALUB=d110, ALUout=c110
# PASS:  op=3, ALUA=61a6, ALUB=1c41, ALUout=61a6
# PASS:  op=3, ALUA=3d12, ALUB=81a7, ALUout=3d12
# PASS:  op=2, ALUA=e79b, ALUB=7d0b, ALUout=6a90
# PASS:  op=1, ALUA=6f0f, ALUB=81f7, ALUout=f106
# PASS:  op=7, ALUA=aacf, ALUB=5dea, ALUout=aad0
# PASS:  op=4, ALUA=2d42, ALUB=b569, ALUout=982b
# PASS:  op=1, ALUA=3634, ALUB=bcfc, ALUout=f330
# PASS:  op=7, ALUA=cb9c, ALUB=72b2, ALUout=cb9d
# PASS:  op=3, ALUA=4827, ALUB=d1a1, ALUout=4827
# PASS:  op=3, ALUA=a5c1, ALUB=24fb, ALUout=a5c1
# PASS:  op=1, ALUA=2c9d, ALUB=1cd5, ALUout=4972
# PASS:  op=7, ALUA=7572, ALUB=5101, ALUout=7573
# PASS:  op=3, ALUA=9bae, ALUB=95d4, ALUout=9bae
# PASS:  op=5, ALUA=5215, ALUB=f901, ALUout=fb15
# PASS:  op=3, ALUA=86e0, ALUB=0d0f, ALUout=86e0
# PASS:  op=4, ALUA=6a20, ALUB=9340, ALUout=f960
# PASS:  op=7, ALUA=03d9, ALUB=22f3, ALUout=03da
# PASS:  op=4, ALUA=fb8d, ALUB=ba86, ALUout=410b
# PASS:  op=5, ALUA=ba54, ALUB=cb4d, ALUout=fb5d
# PASS:  op=0, ALUA=372c, ALUB=e4f8, ALUout=372c
# PASS:  op=0, ALUA=348b, ALUB=01f0, ALUout=348b
# PASS:  op=2, ALUA=03a1, ALUB=6abc, ALUout=98e5
# PASS:  op=3, ALUA=36a2, ALUB=8cc8, ALUout=36a2
# PASS:  op=6, ALUA=7b10, ALUB=e6c6, ALUout=6200
# PASS:  op=3, ALUA=4f50, ALUB=db92, ALUout=4f50
# PASS:  op=5, ALUA=5e17, ALUB=d596, ALUout=df97
# PASS:  op=4, ALUA=3b9a, ALUB=bd29, ALUout=86b3
# PASS:  op=0, ALUA=bfdc, ALUB=1218, ALUout=bfdc
# PASS:  op=1, ALUA=396b, ALUB=83c4, ALUout=bd2f
# PASS:  op=2, ALUA=b449, ALUB=818b, ALUout=32be
# PASS:  op=0, ALUA=8de1, ALUB=7362, ALUout=8de1
# PASS:  op=0, ALUA=62d4, ALUB=236f, ALUout=62d4
# PASS:  op=3, ALUA=ea1b, ALUB=98d3, ALUout=ea1b
# PASS:  op=2, ALUA=0744, ALUB=d838, ALUout=2f0c
# PASS:  op=7, ALUA=ba27, ALUB=eeca, ALUout=ba28
# PASS:  op=5, ALUA=b89c, ALUB=86ac, ALUout=bebc
# PASS:  op=1, ALUA=2f3a, ALUB=aa9c, ALUout=d9d6
# PASS:  op=7, ALUA=3765, ALUB=831b, ALUout=3766
# PASS:  op=6, ALUA=5416, ALUB=a06b, ALUout=0002
# PASS:  op=5, ALUA=05b8, ALUB=ba03, ALUout=bfbb
# PASS:  op=4, ALUA=13b8, ALUB=877c, ALUout=94c4
# PASS:  op=0, ALUA=4e6b, ALUB=15ea, ALUout=4e6b
# PASS:  op=1, ALUA=23c5, ALUB=28c1, ALUout=4c86
# PASS:  op=6, ALUA=8d12, ALUB=5d65, ALUout=0d00
# PASS:  op=1, ALUA=e84b, ALUB=76fd, ALUout=5f48
# PASS:  op=3, ALUA=ef8a, ALUB=c271, ALUout=ef8a
# PASS:  op=5, ALUA=f9dd, ALUB=0f17, ALUout=ffdf
# PASS:  op=4, ALUA=7e0b, ALUB=73d1, ALUout=0dda
# PASS:  op=3, ALUA=e2fa, ALUB=2617, ALUout=e2fa
# PASS:  op=0, ALUA=d904, ALUB=c0f4, ALUout=d904
# PASS:  op=2, ALUA=241f, ALUB=7d18, ALUout=a707
# PASS:  op=6, ALUA=2ae0, ALUB=3147, ALUout=2040
# PASS:  op=1, ALUA=0531, ALUB=1a33, ALUout=1f64
# PASS:  op=7, ALUA=d333, ALUB=e81b, ALUout=d334
# PASS:  op=0, ALUA=b5f3, ALUB=7486, ALUout=b5f3
# PASS:  op=6, ALUA=ac11, ALUB=2003, ALUout=2001
# PASS:  op=3, ALUA=7f74, ALUB=ef6f, ALUout=7f74
# PASS:  op=6, ALUA=cf22, ALUB=0b26, ALUout=0b22
# PASS:  op=6, ALUA=1de6, ALUB=0463, ALUout=0462
# PASS:  op=6, ALUA=e11f, ALUB=5002, ALUout=4002
# PASS:  op=1, ALUA=b2f0, ALUB=65a5, ALUout=1895
# PASS:  op=1, ALUA=fffe, ALUB=b7ce, ALUout=b7cc
# PASS:  op=0, ALUA=e299, ALUB=7f09, ALUout=e299
# PASS:  op=7, ALUA=509b, ALUB=5aea, ALUout=509c
# PASS:  op=7, ALUA=6fe1, ALUB=c559, ALUout=6fe2
# PASS:  op=0, ALUA=f1ad, ALUB=56aa, ALUout=f1ad
# PASS:  op=1, ALUA=989b, ALUB=ed76, ALUout=8611
# PASS:  op=5, ALUA=91b3, ALUB=6eae, ALUout=ffbf
# PASS:  op=7, ALUA=071e, ALUB=a555, ALUout=071f
# PASS:  op=5, ALUA=cf45, ALUB=b782, ALUout=ffc7
# PASS:  op=6, ALUA=acf0, ALUB=59b3, ALUout=08b0
# PASS:  op=3, ALUA=2c85, ALUB=40a5, ALUout=2c85
# PASS:  op=4, ALUA=ef32, ALUB=9832, ALUout=7700
# PASS:  op=3, ALUA=0eca, ALUB=56a1, ALUout=0eca
# PASS:  op=2, ALUA=d490, ALUB=9635, ALUout=3e5b
# PASS:  op=0, ALUA=0fbf, ALUB=37da, ALUout=0fbf
# PASS:  op=5, ALUA=d690, ALUB=bf53, ALUout=ffd3
# PASS:  op=6, ALUA=3808, ALUB=43d3, ALUout=0000
# PASS:  op=6, ALUA=8bb3, ALUB=a18c, ALUout=8180
# PASS:  op=3, ALUA=7f51, ALUB=93d1, ALUout=7f51
# PASS:  op=1, ALUA=f254, ALUB=5963, ALUout=4bb7
# PASS:  op=6, ALUA=21d1, ALUB=cedc, ALUout=00d0
# PASS:  op=4, ALUA=aca9, ALUB=bd26, ALUout=118f
# PASS:  op=6, ALUA=9725, ALUB=6681, ALUout=0601
# PASS:  op=4, ALUA=b609, ALUB=f397, ALUout=459e
# PASS:  op=2, ALUA=b5a1, ALUB=7b2b, ALUout=3a76
# PASS:  op=2, ALUA=c41f, ALUB=bfcf, ALUout=0450
# PASS:  op=6, ALUA=5bdd, ALUB=dc3f, ALUout=581d
# PASS:  op=4, ALUA=a792, ALUB=9f67, ALUout=38f5
# PASS:  op=7, ALUA=3963, ALUB=0f20, ALUout=3964
# PASS:  op=2, ALUA=a261, ALUB=8fe3, ALUout=127e
# PASS:  op=5, ALUA=ca2e, ALUB=d2b5, ALUout=dabf
# PASS:  op=1, ALUA=5e5c, ALUB=19bb, ALUout=7817
# PASS:  op=4, ALUA=4b3c, ALUB=3670, ALUout=7d4c
# PASS:  op=0, ALUA=dd6a, ALUB=a593, ALUout=dd6a
# PASS:  op=5, ALUA=3e8f, ALUB=af14, ALUout=bf9f
# PASS:  op=3, ALUA=dd15, ALUB=b26c, ALUout=dd15
# PASS:  op=3, ALUA=97df, ALUB=8bd0, ALUout=97df
# PASS:  op=2, ALUA=ff3f, ALUB=b127, ALUout=4e18
# PASS:  op=0, ALUA=5547, ALUB=8e62, ALUout=5547
# PASS:  op=1, ALUA=e453, ALUB=11cf, ALUout=f622
# PASS:  op=5, ALUA=3fcc, ALUB=02dd, ALUout=3fdd
# PASS:  op=5, ALUA=77b2, ALUB=594c, ALUout=7ffe
# PASS:  op=6, ALUA=89ba, ALUB=85fc, ALUout=81b8
# PASS:  op=7, ALUA=f9cd, ALUB=a36d, ALUout=f9ce
# PASS:  op=4, ALUA=e4da, ALUB=b858, ALUout=5c82
# PASS:  op=4, ALUA=f892, ALUB=b706, ALUout=4f94
# PASS:  op=2, ALUA=12be, ALUB=b546, ALUout=5d78
# PASS:  op=6, ALUA=8ffa, ALUB=1e86, ALUout=0e82
# PASS:  op=4, ALUA=5c3a, ALUB=840e, ALUout=d834
# PASS:  op=0, ALUA=4abc, ALUB=c856, ALUout=4abc
# PASS:  op=7, ALUA=da95, ALUB=fe64, ALUout=da96
# PASS:  op=0, ALUA=ed28, ALUB=0d9d, ALUout=ed28
# PASS:  op=5, ALUA=31d6, ALUB=c5d7, ALUout=f5d7
# PASS:  op=4, ALUA=1e64, ALUB=1178, ALUout=0f1c
# PASS:  op=5, ALUA=fbf0, ALUB=ed71, ALUout=fff1
# PASS:  op=1, ALUA=1042, ALUB=a3f6, ALUout=b438
# PASS:  op=5, ALUA=f401, ALUB=6024, ALUout=f425
# PASS:  op=2, ALUA=2ffc, ALUB=9660, ALUout=999c
# PASS:  op=7, ALUA=3f54, ALUB=8df5, ALUout=3f55
# PASS:  op=7, ALUA=6b6a, ALUB=f7a6, ALUout=6b6b
# PASS:  op=5, ALUA=007e, ALUB=68e1, ALUout=68ff
# PASS:  op=6, ALUA=98cc, ALUB=856d, ALUout=804c
# PASS:  op=2, ALUA=4f89, ALUB=2790, ALUout=27f9
# PASS:  op=7, ALUA=1bd2, ALUB=5cff, ALUout=1bd3
# PASS:  op=2, ALUA=abcc, ALUB=92d9, ALUout=18f3
# PASS:  op=2, ALUA=d054, ALUB=8663, ALUout=49f1
# PASS:  op=6, ALUA=c891, ALUB=c8d3, ALUout=c891
# PASS:  op=5, ALUA=d519, ALUB=42d2, ALUout=d7db
# PASS:  op=3, ALUA=d24d, ALUB=949f, ALUout=d24d
# PASS:  op=5, ALUA=a60f, ALUB=b436, ALUout=b63f
# PASS:  op=1, ALUA=0eb6, ALUB=db04, ALUout=e9ba
# PASS:  op=7, ALUA=8eef, ALUB=428b, ALUout=8ef0
# PASS:  op=4, ALUA=1704, ALUB=fd17, ALUout=ea13
# PASS:  op=0, ALUA=927a, ALUB=e7b2, ALUout=927a
# PASS:  op=5, ALUA=9b0a, ALUB=01c4, ALUout=9bce
# PASS:  op=6, ALUA=9af5, ALUB=648e, ALUout=0084
# PASS:  op=6, ALUA=8fb4, ALUB=25be, ALUout=05b4
# PASS:  op=1, ALUA=0f0d, ALUB=0226, ALUout=1133
# PASS:  op=4, ALUA=121e, ALUB=2f8f, ALUout=3d91
# PASS:  op=0, ALUA=a003, ALUB=a893, ALUout=a003
# PASS:  op=6, ALUA=aeea, ALUB=d09f, ALUout=808a
# PASS:  op=5, ALUA=de8c, ALUB=1997, ALUout=df9f
# PASS:  op=1, ALUA=c815, ALUB=b647, ALUout=7e5c
# PASS:  op=1, ALUA=77d5, ALUB=05a9, ALUout=7d7e
# PASS:  op=5, ALUA=dccd, ALUB=5fbb, ALUout=dfff
# PASS:  op=6, ALUA=bb07, ALUB=91df, ALUout=9107
# PASS:  op=2, ALUA=bc27, ALUB=a831, ALUout=13f6
# PASS:  op=3, ALUA=efcf, ALUB=691d, ALUout=efcf
# PASS:  op=5, ALUA=f371, ALUB=590f, ALUout=fb7f
# PASS:  op=2, ALUA=f0ae, ALUB=30e3, ALUout=bfcb
# PASS:  op=6, ALUA=f2ef, ALUB=157b, ALUout=106b
# PASS:  op=6, ALUA=4d23, ALUB=6a00, ALUout=4800
# PASS:  op=5, ALUA=8fa6, ALUB=54b9, ALUout=dfbf
# PASS:  op=3, ALUA=9622, ALUB=d138, ALUout=9622
# PASS:  op=2, ALUA=be40, ALUB=f8ba, ALUout=c586
# PASS:  op=3, ALUA=a93b, ALUB=bede, ALUout=a93b
# PASS:  op=3, ALUA=1991, ALUB=385b, ALUout=1991
# PASS:  op=3, ALUA=11e6, ALUB=137e, ALUout=11e6
# PASS:  op=2, ALUA=18a6, ALUB=e33f, ALUout=3567
# PASS:  op=7, ALUA=2308, ALUB=ac1f, ALUout=2309
# PASS:  op=1, ALUA=3b97, ALUB=d5cd, ALUout=1164
# PASS:  op=3, ALUA=5dc8, ALUB=4316, ALUout=5dc8
# PASS:  op=5, ALUA=4721, ALUB=8962, ALUout=cf63
# PASS:  op=1, ALUA=ac12, ALUB=c703, ALUout=7315
# PASS:  op=6, ALUA=7340, ALUB=be7b, ALUout=3240
# PASS:  op=6, ALUA=d9ec, ALUB=7304, ALUout=5104
# PASS:  op=2, ALUA=d09d, ALUB=57e8, ALUout=78b5
# PASS:  op=5, ALUA=da0a, ALUB=739f, ALUout=fb9f
# PASS:  op=4, ALUA=038f, ALUB=3673, ALUout=35fc
# PASS:  op=6, ALUA=e171, ALUB=e713, ALUout=e111
# PASS:  op=2, ALUA=2038, ALUB=4c17, ALUout=d421
# PASS:  op=0, ALUA=7740, ALUB=1ff0, ALUout=7740
# PASS:  op=3, ALUA=5a99, ALUB=b8ae, ALUout=5a99
# PASS:  op=6, ALUA=4190, ALUB=f71d, ALUout=4110
# PASS:  op=3, ALUA=1506, ALUB=5922, ALUout=1506
# PASS:  op=3, ALUA=96c9, ALUB=9f18, ALUout=96c9
# PASS:  op=6, ALUA=d037, ALUB=7b01, ALUout=5001
# PASS:  op=2, ALUA=253e, ALUB=f77a, ALUout=2dc4
# PASS:  op=1, ALUA=dced, ALUB=3ba3, ALUout=1890
# PASS:  op=2, ALUA=6a23, ALUB=908d, ALUout=d996
# PASS:  op=6, ALUA=c585, ALUB=44e0, ALUout=4480
# PASS:  op=0, ALUA=ee5a, ALUB=088d, ALUout=ee5a
# PASS:  op=0, ALUA=6ae6, ALUB=936d, ALUout=6ae6
# PASS:  op=0, ALUA=eb22, ALUB=95c2, ALUout=eb22
# PASS:  op=0, ALUA=c50b, ALUB=054c, ALUout=c50b
# PASS:  op=7, ALUA=0ff7, ALUB=c1fe, ALUout=0ff8
# PASS:  op=5, ALUA=f652, ALUB=a733, ALUout=f773
# PASS:  op=6, ALUA=8ce2, ALUB=d725, ALUout=8420
# PASS:  op=4, ALUA=57e2, ALUB=e5fb, ALUout=b219
# PASS:  op=5, ALUA=76f2, ALUB=2e56, ALUout=7ef6
# PASS:  op=5, ALUA=d3b3, ALUB=19df, ALUout=dbff
# PASS:  op=3, ALUA=4b78, ALUB=444c, ALUout=4b78
# PASS:  op=3, ALUA=bdd4, ALUB=877a, ALUout=bdd4
# PASS:  op=3, ALUA=92e6, ALUB=35c9, ALUout=92e6
# PASS:  op=5, ALUA=fea1, ALUB=1426, ALUout=fea7
# PASS:  op=3, ALUA=ff44, ALUB=526a, ALUout=ff44
# PASS:  op=2, ALUA=989f, ALUB=0391, ALUout=950e
# PASS:  op=0, ALUA=0498, ALUB=918a, ALUout=0498
# PASS:  op=5, ALUA=6cb3, ALUB=f61d, ALUout=febf
# PASS:  op=7, ALUA=9bcc, ALUB=1b51, ALUout=9bcd
# PASS:  op=3, ALUA=908c, ALUB=5b5f, ALUout=908c
# PASS:  op=5, ALUA=0ab1, ALUB=a8c7, ALUout=aaf7
# PASS:  op=7, ALUA=0da9, ALUB=9a7b, ALUout=0daa
# PASS:  op=3, ALUA=415c, ALUB=3ba6, ALUout=415c
# PASS:  op=3, ALUA=7cce, ALUB=8732, ALUout=7cce
# PASS:  op=5, ALUA=6765, ALUB=c1eb, ALUout=e7ef
# PASS:  op=2, ALUA=1049, ALUB=27e9, ALUout=e860
# PASS:  op=2, ALUA=935c, ALUB=4eb4, ALUout=44a8
# PASS:  op=1, ALUA=fc7d, ALUB=93bc, ALUout=9039
# PASS:  op=7, ALUA=80a1, ALUB=6958, ALUout=80a2
# PASS:  op=1, ALUA=ed72, ALUB=e64c, ALUout=d3be
# PASS:  op=0, ALUA=4b37, ALUB=2e37, ALUout=4b37
# PASS:  op=0, ALUA=4051, ALUB=8e69, ALUout=4051
# PASS:  op=3, ALUA=fb60, ALUB=d9f2, ALUout=fb60
# PASS:  op=3, ALUA=e6f8, ALUB=6ee4, ALUout=e6f8
# PASS:  op=1, ALUA=32a5, ALUB=c4b1, ALUout=f756
# PASS:  op=6, ALUA=066b, ALUB=236b, ALUout=026b
# PASS:  op=0, ALUA=4c24, ALUB=7589, ALUout=4c24
# PASS:  op=7, ALUA=17b9, ALUB=d076, ALUout=17ba
# PASS:  op=7, ALUA=90bf, ALUB=083f, ALUout=90c0
# PASS:  op=7, ALUA=b13b, ALUB=2e19, ALUout=b13c
# PASS:  op=0, ALUA=6037, ALUB=6764, ALUout=6037
# PASS:  op=3, ALUA=a7cb, ALUB=5009, ALUout=a7cb
# PASS:  op=0, ALUA=d7c6, ALUB=b8d8, ALUout=d7c6
# PASS:  op=7, ALUA=a51a, ALUB=4389, ALUout=a51b
# PASS:  op=1, ALUA=1f8d, ALUB=284e, ALUout=47db
# PASS:  op=6, ALUA=964b, ALUB=e4e3, ALUout=8443
# PASS:  op=4, ALUA=6bb1, ALUB=3ab9, ALUout=5108
# PASS:  op=7, ALUA=e40d, ALUB=9f9b, ALUout=e40e
# PASS:  op=7, ALUA=780c, ALUB=8247, ALUout=780d
# PASS:  op=3, ALUA=69bc, ALUB=9abb, ALUout=69bc
# PASS:  op=6, ALUA=39c5, ALUB=255d, ALUout=2145
# PASS:  op=7, ALUA=3d39, ALUB=80ee, ALUout=3d3a
# PASS:  op=2, ALUA=6d1f, ALUB=f3a6, ALUout=7979
# PASS:  op=2, ALUA=925b, ALUB=7049, ALUout=2212
# PASS:  op=4, ALUA=15b3, ALUB=e287, ALUout=f734
# PASS:  op=3, ALUA=c17d, ALUB=4ac9, ALUout=c17d
# PASS:  op=4, ALUA=0b28, ALUB=2422, ALUout=2f0a
# PASS:  op=1, ALUA=6754, ALUB=17ce, ALUout=7f22
# PASS:  op=6, ALUA=24aa, ALUB=c13d, ALUout=0028
# PASS:  op=0, ALUA=e3a6, ALUB=30ed, ALUout=e3a6
# PASS:  op=3, ALUA=e062, ALUB=4913, ALUout=e062
# PASS:  op=6, ALUA=23fc, ALUB=cec5, ALUout=02c4
# PASS:  op=7, ALUA=1734, ALUB=7e5e, ALUout=1735
# PASS:  op=0, ALUA=b51b, ALUB=4303, ALUout=b51b
# PASS:  op=4, ALUA=326e, ALUB=4e3e, ALUout=7c50
# PASS:  op=6, ALUA=ad9f, ALUB=6620, ALUout=2400
# PASS:  op=3, ALUA=aeb5, ALUB=c71d, ALUout=aeb5
# PASS:  op=3, ALUA=3404, ALUB=eb4c, ALUout=3404
# PASS:  op=2, ALUA=48d9, ALUB=5b85, ALUout=ed54
# PASS:  op=4, ALUA=20ae, ALUB=11ce, ALUout=3160
# PASS:  op=3, ALUA=5152, ALUB=8c1c, ALUout=5152
# PASS:  op=6, ALUA=3ea2, ALUB=bad1, ALUout=3a80
# PASS:  op=3, ALUA=24e2, ALUB=ea15, ALUout=24e2
# PASS:  op=5, ALUA=6b90, ALUB=5090, ALUout=7b90
# PASS:  op=5, ALUA=22c4, ALUB=2f4a, ALUout=2fce
# PASS:  op=0, ALUA=f146, ALUB=5a9c, ALUout=f146
# PASS:  op=4, ALUA=a93d, ALUB=616d, ALUout=c850
# PASS:  op=6, ALUA=af21, ALUB=3861, ALUout=2821
# PASS:  op=0, ALUA=2bfd, ALUB=9258, ALUout=2bfd
# PASS:  op=6, ALUA=cd8f, ALUB=6a09, ALUout=4809
# PASS:  op=5, ALUA=f65a, ALUB=0926, ALUout=ff7e
# PASS:  op=0, ALUA=e383, ALUB=b57e, ALUout=e383
# PASS:  op=5, ALUA=6f56, ALUB=6695, ALUout=6fd7
# PASS:  op=0, ALUA=5d80, ALUB=ded4, ALUout=5d80
# PASS:  op=0, ALUA=591d, ALUB=6315, ALUout=591d
# PASS:  op=4, ALUA=f20e, ALUB=6393, ALUout=919d
# PASS:  op=6, ALUA=45f8, ALUB=62f5, ALUout=40f0
# PASS:  op=6, ALUA=3097, ALUB=99cd, ALUout=1085
# PASS:  op=6, ALUA=aeb7, ALUB=035c, ALUout=0214
# PASS:  op=0, ALUA=943c, ALUB=ed25, ALUout=943c
# PASS:  op=6, ALUA=8446, ALUB=8e90, ALUout=8400
# PASS:  op=7, ALUA=b3f3, ALUB=0e7a, ALUout=b3f4
# PASS:  op=3, ALUA=5b6c, ALUB=ce46, ALUout=5b6c
# PASS:  op=5, ALUA=93a8, ALUB=67aa, ALUout=f7aa
# PASS:  op=6, ALUA=5db6, ALUB=b4fe, ALUout=14b6
# PASS:  op=0, ALUA=3c5d, ALUB=e515, ALUout=3c5d
# PASS:  op=4, ALUA=9072, ALUB=9387, ALUout=03f5
# PASS:  op=3, ALUA=bfb2, ALUB=8b9e, ALUout=bfb2
# PASS:  op=1, ALUA=77a7, ALUB=7258, ALUout=e9ff
# PASS:  op=5, ALUA=1947, ALUB=1c02, ALUout=1d47
# PASS:  op=4, ALUA=3357, ALUB=6949, ALUout=5a1e
# PASS:  op=1, ALUA=9f5e, ALUB=ffd1, ALUout=9f2f
# PASS:  op=2, ALUA=5a57, ALUB=d6c6, ALUout=8391
